…
-   `names_transform`/`values_transform`：修改转换后的列类型，使用方法同上。

-   `names_repair`：转换后的列名不符合要求时的处理方式。更多处理方式见：`?vctrs::vec_as_names`。

### `names_to`参数为字符串向量时的两种情况

#### 待转换列的列名包含多个信息

查看下面的数据集，`sp_m_014`等列名中包含了多个信息，分别是：结核病类型、性别和年龄组。

```{r}
#| eval: false

who2
#> # A tibble: 7,240 × 58
#>   country      year sp_m_014 sp_m_1524 sp_m_2534 sp_m_3544 sp_m_4554
#>   <chr>       <dbl>    <dbl>     <dbl>     <dbl>     <dbl>     <dbl>
#> 1 Afghanistan  1980       NA        NA        NA        NA        NA
#> 2 Afghanistan  1981       NA        NA        NA        NA        NA
#> 3 Afghanistan  1982       NA        NA        NA        NA        NA
#> 4 Afghanistan  1983       NA        NA        NA        NA        NA
#> 5 Afghanistan  1984       NA        NA        NA        NA        NA
#> 6 Afghanistan  1985       NA        NA        NA        NA        NA
#> # ℹ 7,234 more rows
#> # ℹ 51 more variables: sp_m_5564 <dbl>, sp_m_65 <dbl>, sp_f_014 <dbl>, …
```

可以使用`names_sep`参数指定分隔符，将列名拆分为多个列。

```{r}
#| eval: false

who2 |>
  pivot_longer(
    cols = !(country:year),
    names_to = c("diagnosis", "gender", "age"),
    names_sep = "_",
    values_to = "count"
  )
#> # A tibble: 405,440 × 6
#>   country      year diagnosis gender age   count
#>   <chr>       <dbl> <chr>     <chr>  <chr> <dbl>
#> 1 Afghanistan  1980 sp        m      014      NA
#> 2 Afghanistan  1980 sp        m      1524     NA
#> 3 Afghanistan  1980 sp        m      2534     NA
#> 4 Afghanistan  1980 sp        m      3544     NA
#> 5 Afghanistan  1980 sp        m      4554     NA
#> 6 Afghanistan  1980 sp        m      5564     NA
#> # ℹ 405,434 more rows
```
…
参数`names_to`给定为`.value`，表示将列名中的值作为新列的名称。注意`.value`与分隔符分隔后产生的值顺序有关。

```{r}
#| eval: false

household |>
  pivot_longer(
    cols = !family,
    names_to = c(".value", "child"),
    names_sep = "_",
    values_drop_na = TRUE
  )
#> # A tibble: 9 × 4
#>   family child  dob        name
#>    <int> <chr>  <date>     <chr>
#> 1      1 child1 1998-11-26 Susan
#> 2      1 child2 2000-01-29 Jose
#> 3      2 child1 1996-06-22 Mark
#> 4      3 child1 2002-07-11 Sam
#> 5      3 child2 2004-04-05 Seth
#> 6      4 child1 2004-10-10 Craig
#> # ℹ 3 more rows
```
…
