…
`relocate()` 函数用于移动列的位置，语法为 `relocate(列名, .before = 列名, .after = 列名)`。

待移动的列名可以遵循 `select()` 的语法。

## Groups

### group_by()

`group_by()` 函数用于对数据进行分组，语法为 `group_by(列名)`。`group_by()` 会改变数据的分组结构，但不会改变数据本身。被分组的数据在打印时会显示`# Groups: 列名 [组数]`。

```{r}
flights |>
  group_by(month)
#> # A tibble: 336,776 × 19
#> # Groups:   month [12]
#>    year month   day dep_time sched_dep_time dep_delay arr_time sched_arr_time
#>   <int> <int> <int>    <int>          <int>     <dbl>    <int>          <int>
#> 1  2013     1     1      517            515         2      830            819
#> 2  2013     1     1      533            529         4      850            830
#> 3  2013     1     1      542            540         2      923            850
#> 4  2013     1     1      544            545        -1     1004           1022
#> 5  2013     1     1      554            600        -6      812            837
#> 6  2013     1     1      554            558        -4      740            728
#> # ℹ 336,770 more rows
#> # ℹ 11 more variables: arr_delay <dbl>, carrier <chr>, flight <int>, …
```
…
